[gd_scene load_steps=3 format=2]

[ext_resource path="res://Assets/Sprites/pinkBlock.png" type="Texture" id=1]
[ext_resource path="res://Assets/Scenes/Block.tscn" type="PackedScene" id=2]

[node name="PinkBlock" type="Sprite"]
texture = ExtResource( 1 )

[node name="Block" parent="." instance=ExtResource( 2 )]

