[gd_scene load_steps=7 format=2]

[ext_resource path="res://Assets/Scripts/Ball.cs" type="Script" id=1]
[ext_resource path="res://Assets/Sprites/ball.png" type="Texture" id=2]
[ext_resource path="res://Assets/Sounds/paddle.wav" type="AudioStream" id=3]
[ext_resource path="res://Assets/Sounds/walls.wav" type="AudioStream" id=4]

[sub_resource type="RectangleShape2D" id=1]
extents = Vector2( 3.98412, 3.99744 )

[sub_resource type="Animation" id=2]
resource_name = "spin"
length = 0.8
loop = true
tracks/0/type = "value"
tracks/0/path = NodePath("Sprite:rotation_degrees")
tracks/0/interp = 1
tracks/0/loop_wrap = true
tracks/0/imported = false
tracks/0/enabled = true
tracks/0/keys = {
"times": PoolRealArray( 0, 0.1, 0.2, 0.3, 0.4, 0.5, 0.6, 0.7, 0.8 ),
"transitions": PoolRealArray( 1, 1, 1, 1, 1, 1, 1, 1, 1 ),
"update": 0,
"values": [ 0.0, 45.0, 90.0, 135.0, 180.0, 225.0, 270.0, 315.0, 360.0 ]
}

[node name="Ball" type="Area2D"]
linear_damp = 0.0
angular_damp = 0.0
script = ExtResource( 1 )

[node name="Body" type="CollisionShape2D" parent="."]
shape = SubResource( 1 )

[node name="Sprite" type="Sprite" parent="."]
texture = ExtResource( 2 )

[node name="anim" type="AnimationPlayer" parent="."]
anims/spin = SubResource( 2 )

[node name="soundPaddle" type="AudioStreamPlayer2D" parent="."]
stream = ExtResource( 3 )

[node name="soundWalls" type="AudioStreamPlayer2D" parent="."]
stream = ExtResource( 4 )

