[gd_scene load_steps=5 format=2]

[ext_resource path="res://Assets/Scripts/Block.cs" type="Script" id=1]
[ext_resource path="res://Assets/Sounds/blockHit.wav" type="AudioStream" id=2]
[ext_resource path="res://Assets/Sounds/blockDestroy.wav" type="AudioStream" id=3]

[sub_resource type="RectangleShape2D" id=1]
extents = Vector2( 12, 12 )

[node name="Block" type="Area2D" groups=[
"Blocks",
]]
script = ExtResource( 1 )

[node name="body" type="CollisionShape2D" parent="."]
shape = SubResource( 1 )

[node name="soundHit" type="AudioStreamPlayer2D" parent="."]
stream = ExtResource( 2 )

[node name="soundDestroy" type="AudioStreamPlayer2D" parent="."]
stream = ExtResource( 3 )

